<!-- Generated by IcoMoon.io -->
<svg version="1.1" xmlns="http://www.w3.org/2000/svg" width="16" height="16" viewBox="0 0 16 16">
<title>dots-three-vertical</title>
<path d="M8.001 6.24c-0.972 0-1.761 0.788-1.761 1.76s0.789 1.76 1.761 1.76c0.972 0 1.759-0.788 1.759-1.76s-0.787-1.76-1.759-1.76zM8.001 4.16c0.972 0 1.759-0.789 1.759-1.76s-0.787-1.76-1.759-1.76c-0.972 0-1.761 0.788-1.761 1.76s0.789 1.76 1.761 1.76zM8.001 11.84c-0.972 0-1.761 0.788-1.761 1.76s0.789 1.76 1.761 1.76c0.972 0 1.759-0.788 1.759-1.76s-0.787-1.76-1.759-1.76z"></path>
</svg>
