<?xml version="1.0" encoding="utf-8"?>
<!-- Generator: Adobe Illustrator 21.0.0, SVG Export Plug-In . SVG Version: 6.00 Build 0)  -->
<svg version="1.1" id="Layer_1" xmlns="http://www.w3.org/2000/svg" xmlns:xlink="http://www.w3.org/1999/xlink" x="0px" y="0px"
	 viewBox="0 0 16 16" style="enable-background:new 0 0 16 16;" xml:space="preserve">
<title>person</title>
<path d="M9.1,11.5v-0.9c1.3-0.7,2.3-2.5,2.3-4.2c0-2.8,0-5.1-3.4-5.1S4.6,3.4,4.6,6.3c0,1.8,1,3.5,2.3,4.2v0.9C3,11.8,0,13.7,0,16
	h16C16,13.7,13,11.8,9.1,11.5z"/>
</svg>
