<!-- Generated by IcoMoon.io -->
<svg version="1.1" xmlns="http://www.w3.org/2000/svg" width="16" height="16" viewBox="0 0 16 16">
<title>star</title>
<path d="M8.77 0.83l1.81 3.66c0.126 0.25 0.363 0.428 0.645 0.469l0.005 0.001 4 0.59c0.426 0.056 0.751 0.417 0.751 0.853 0 0.232-0.092 0.442-0.241 0.597v0l-2.92 2.86c-0.162 0.157-0.262 0.376-0.262 0.618 0 0.050 0.004 0.099 0.013 0.147l-0.001-0.005 0.69 4c0.008 0.045 0.013 0.097 0.013 0.15 0 0.475-0.385 0.86-0.86 0.86-0.148 0-0.286-0.037-0.408-0.103l0.005 0.002-3.61-1.87c-0.116-0.062-0.254-0.099-0.4-0.099s-0.284 0.037-0.405 0.101l0.005-0.002-3.6 1.89c-0.117 0.063-0.256 0.1-0.403 0.1-0.475 0-0.86-0.385-0.86-0.86 0-0.053 0.005-0.105 0.014-0.156l-0.001 0.005 0.69-4c0.008-0.043 0.012-0.092 0.012-0.142 0-0.242-0.1-0.461-0.262-0.618v0l-2.93-2.88c-0.151-0.155-0.245-0.367-0.245-0.601 0-0.427 0.311-0.782 0.72-0.849l0.005-0.001 4-0.59c0.287-0.042 0.524-0.22 0.648-0.465l0.002-0.005 1.84-3.66c0.142-0.291 0.436-0.487 0.775-0.487s0.633 0.197 0.773 0.482l0.002 0.005z"></path>
</svg>
